%YAML 1.1
%TAG !u! tag:unity3d.com,2011:
--- !u!21 &2100000
Material:
  serializedVersion: 6
  m_ObjectHideFlags: 0
  m_CorrespondingSourceObject: {fileID: 0}
  m_PrefabInstance: {fileID: 0}
  m_PrefabAsset: {fileID: 0}
  m_Name: Water
  m_Shader: {fileID: 4800000, guid: 9b290cc40a876fc4495664ed1571d4e3, type: 3}
  m_ShaderKeywords: 
  m_LightmapFlags: 4
  m_EnableInstancingVariants: 0
  m_DoubleSidedGI: 0
  m_CustomRenderQueue: -1
  stringTagMap: {}
  disabledShaderPasses: []
  m_SavedProperties:
    serializedVersion: 3
    m_TexEnvs:
    - _MainTex:
        m_Texture: {fileID: 2800000, guid: 13cfbe569508a3745861050899ffdcb1, type: 3}
        m_Scale: {x: 1, y: 1}
        m_Offset: {x: 0, y: 0}
    - _Main_Tex:
        m_Texture: {fileID: 2800000, guid: 929758f6ceb1b73469875fa630977ee4, type: 3}
        m_Scale: {x: 1, y: 1}
        m_Offset: {x: 0, y: 0}
    m_Floats:
    - _InvFade: 3
    - _ReplaySpeed: 10
    m_Colors:
    - _Color: {r: 0.5603698, g: 0.7938823, b: 0.96268654, a: 1}
    - _Main_Color: {r: 1, g: 1, b: 1, a: 1}
    - _NumTexTiles: {r: 4, g: 4, b: 0, a: 0}
    - _TintColor: {r: 0, g: 0.381745, b: 0.57462686, a: 0.5019608}
